UVMF/base_examples/project_benches/ahb2wb/sim/transcript
# vsim -c -sv_seed random "+UVM_TESTNAME=test_top" "+UVM_VERBOSITY=UVM_HIGH" -permit_unmatched_virtual_intf "+notimingchecks" -suppress 8887 -solvefaildebug -solvefailtestcase -uvmcontrol=none -printsimstats -do " coverage save -onexit test_top.ucdb; set IterationLimit 140000; set NoQuitOnFinish 1; onbreak {resume}; run -all; quit -f;" optimized_batch_top_tb 
# Start time: 21:28:05 on Sep 25,2017
# //  Questa Sim-64
# //  Version 10.6c linux_x86_64 Jul 25 2017
# //
# //  Copyright 1991-2017 Mentor Graphics Corporation
# //  All Rights Reserved.
# //
# //  QuestaSim and its associated documentation contain trade
# //  secrets and commercial or financial information that are the property of
# //  Mentor Graphics Corporation and are privileged, confidential,
# //  and exempt from disclosure under the Freedom of Information Act,
# //  5 U.S.C. Section 552. Furthermore, this information
# //  is prohibited from disclosure under the Trade Secrets Act,
# //  18 U.S.C. Section 1905.
# //
# Loading sv_std.std
# Loading work.uvmf_base_pkg_hdl(fast)
# Loading work.ahb2wb_parameters_pkg(fast)
# Loading work.wb_driver_bfm(fast)
# Loading work.wb_monitor_bfm(fast)
# Loading work.wb_pkg_hdl(fast)
# Loading sv_std.mti_fli
# Loading mtiUvm.uvm_pkg
# Loading work.fli_pkg(fast)
# Loading mtiUvm.questa_uvm_pkg
# Loading work.uvmf_base_pkg(fast)
# Loading work.wb_pkg(fast)
# Loading work.ahb_driver_bfm(fast)
# Loading work.ahb_monitor_bfm(fast)
# Loading work.ahb_pkg_hdl(fast)
# Loading work.ahb_pkg(fast)
# Loading work.ahb2wb_sequences_pkg(fast)
# Loading work.ahb2wb_env_pkg(fast)
# Loading work.ahb2wb_test_pkg(fast)
# Loading work.hvl_top_sv_unit(fast)
# Loading work.hvl_top(fast)
# Loading work.wb_if_sv_unit(fast)
# Loading work.ahb_if_sv_unit(fast)
# Loading work.hdl_top_sv_unit(fast)
# Loading work.hdl_top(fast)
# Loading work.ahb_monitor_bfm_sv_unit(fast)
# Loading work.ahb_monitor_bfm(fast)
# Loading work.wb_monitor_bfm_sv_unit(fast)
# Loading work.wb_monitor_bfm(fast)
# Loading work.ahb_driver_bfm_sv_unit(fast)
# Loading work.ahb_driver_bfm(fast)
# Loading work.wb_driver_bfm_sv_unit(fast)
# Loading work.wb_driver_bfm(fast)
# Loading /scratch/aedemo/tools/Questa_10.6c/questasim/uvm-1.1d/linux_x86_64/uvm_dpi.so
# Sv_Seed = 2497372192
#  coverage save -onexit test_top.ucdb
#  set IterationLimit 140000
# 140000
#  set NoQuitOnFinish 1
# 1
#  onbreak {resume}
#  Warning: onbreak command for use within macro
#  run -all
# ----------------------------------------------------------------
# UVM-1.1d
# (C) 2007-2013 Mentor Graphics Corporation
# (C) 2007-2013 Cadence Design Systems, Inc.
# (C) 2006-2013 Synopsys, Inc.
# (C) 2011-2013 Cypress Semiconductor Corp.
# ----------------------------------------------------------------
# 
#   ***********       IMPORTANT RELEASE NOTES         ************
# 
#   You are using a version of the UVM library that has been compiled
#   with `UVM_NO_DEPRECATED undefined.
#   See http://www.eda.org/svdb/view.php?id=3313 for more details.
# 
#   You are using a version of the UVM library that has been compiled
#   with `UVM_OBJECT_MUST_HAVE_CONSTRUCTOR undefined.
#   See http://www.eda.org/svdb/view.php?id=3770 for more details.
# 
#       (Specify +UVM_NO_RELNOTES to turn off this notice)
# 
# ----------------------------------------------------------------
# //  UVM Framework 
# //  Version 3.6g
# //  (C) 2017 Mentor Graphics Corporation
# //  All Rights Reserved.
# ----------------------------------------------------------------
# 
# 
# UVM_INFO verilog_src/questa_uvm_pkg-1.2/src/questa_uvm_pkg.sv(215) @ 0: reporter [Questa UVM] QUESTA_UVM-1.2.3
# UVM_INFO verilog_src/questa_uvm_pkg-1.2/src/questa_uvm_pkg.sv(217) @ 0: reporter [Questa UVM]  questa_uvm::init()
# UVM_INFO @ 0: reporter [RNTST] Running test test_top...
# UVM_INFO @ 0: uvm_test_top [CFG] 
# 
# 
# ----------------------------------------------------------------------
# report handler state dump
# 
# 
# +-----------------+
# |   Verbosities   |
# +-----------------+
# 
# max verbosity level =         300
# *** verbosities by id
# [ILLEGALNAME] --> UVM_LOW
# [Questa Debug] --> UVM_LOW
# [Questa UVM Settings] --> UVM_LOW
# 
# *** verbosities by id and severity
# 
# +-------------+
# |   actions   |
# +-------------+
# 
# *** actions by severity
# UVM_INFO = DISPLAY 
# UVM_WARNING = DISPLAY 
# UVM_ERROR = DISPLAY COUNT 
# UVM_FATAL = DISPLAY EXIT 
# 
# *** actions by id
# 
# *** actions by id and severity
# 
# +-------------+
# |    files    |
# +-------------+
# 
# default file handle =           0
# 
# *** files by severity
# UVM_INFO =           0
# UVM_WARNING =           0
# UVM_ERROR =           0
# UVM_FATAL =           0
# 
# *** files by id
# 
# *** files by id and severity
# report server state
# 
# +-------------+
# |   counts    |
# +-------------+
# 
# max quit count =     0
# quit count =     0
# UVM_INFO :    4
# UVM_WARNING :    0
# UVM_ERROR :    0
# UVM_FATAL :    0
# CFG :    1
# Questa UVM :    2
# RNTST :    1
# ----------------------------------------------------------------------
# UVM_INFO verilog_src/questa_uvm_pkg-1.2/src/questa_uvm_pkg.sv(277) @ 0: reporter [Questa UVM] End Of Elaboration
# ahb_driver_bfm: Inside access()
# wb_driver_bfm: Inside response()
# UVM_INFO @ 215: uvm_test_top.environment.ahb2wb_pred [PRED] Transaction Recievied through ahb_ae
# UVM_INFO @ 215: uvm_test_top.environment.ahb.ahb_monitor [MON] op:0x00000000 data:0x0000 addr:0x00000000 
# UVM_INFO @ 215: uvm_test_top.environment.wb2ahb_pred [PRED] Transaction Recievied through wb_ae
# UVM_INFO @ 215: uvm_test_top.environment.wb.wb_monitor [MON] op:0x00000000 data:0x0000 addr:0x00000000 byte_select:0x0 
# UVM_INFO @ 235: uvm_test_top.environment.wb.sequencer@@wb_memory_slave_s [SEQ] Processed txn: op:0x00000001 data:0x00ab addr:0x00000001 byte_select:0x0 
# wb_driver_bfm: Inside response()
# UVM_INFO @ 275: uvm_test_top.environment.ahb2wb_pred [PRED] Transaction Recievied through ahb_ae
# UVM_INFO @ 275: uvm_test_top.environment.ahb2wb_pred [PRED] WB Write Predicted: op:0x00000001 data:0x00ab addr:0x00000001 byte_select:0x0 
# UVM_INFO @ 275: uvm_test_top.environment.ahb.ahb_monitor [MON] op:0x00000002 data:0x00ab addr:0x00000001 
# UVM_INFO @ 275: uvm_test_top.environment.ahb.sequencer@@ahb_master_access_s [SEQ] Write:op:0x00000002 data:0x00ab addr:0x00000001 
# ahb_driver_bfm: Inside access()
# UVM_INFO @ 295: uvm_test_top.environment.wb2ahb_pred [PRED] Transaction Recievied through wb_ae
# UVM_INFO @ 295: uvm_test_top.environment.ahb2wb_sb [SCBD] MATCH! - EXPECTED: op:0x00000001 data:0x00ab addr:0x00000001 byte_select:0x0 ACTUAL: op:0x00000001 data:0x00ab addr:0x00000001 byte_select:0x0 
# UVM_INFO @ 295: uvm_test_top.environment.wb2ahb_pred [PRED] AHB Write Actual: op:0x00000001 data:0x00ab addr:0x00000001 byte_select:0x0 
# UVM_INFO @ 295: uvm_test_top.environment.wb.wb_monitor [MON] op:0x00000001 data:0x00ab addr:0x00000001 byte_select:0x0 
# UVM_INFO @ 335: uvm_test_top.environment.wb.sequencer@@wb_memory_slave_s [SEQ] Processed txn: op:0x00000001 data:0x00cd addr:0x00000002 byte_select:0x0 
# wb_driver_bfm: Inside response()
# UVM_INFO @ 375: uvm_test_top.environment.ahb2wb_pred [PRED] Transaction Recievied through ahb_ae
# UVM_INFO @ 375: uvm_test_top.environment.ahb2wb_pred [PRED] WB Write Predicted: op:0x00000001 data:0x00cd addr:0x00000002 byte_select:0x0 
# UVM_INFO @ 375: uvm_test_top.environment.ahb.ahb_monitor [MON] op:0x00000002 data:0x00cd addr:0x00000002 
# UVM_INFO @ 375: uvm_test_top.environment.ahb.sequencer@@ahb_master_access_s [SEQ] Write:op:0x00000002 data:0x00cd addr:0x00000002 
# ahb_driver_bfm: Inside access()
# UVM_INFO @ 395: uvm_test_top.environment.wb2ahb_pred [PRED] Transaction Recievied through wb_ae
# UVM_INFO @ 395: uvm_test_top.environment.ahb2wb_sb [SCBD] MATCH! - EXPECTED: op:0x00000001 data:0x00cd addr:0x00000002 byte_select:0x0 ACTUAL: op:0x00000001 data:0x00cd addr:0x00000002 byte_select:0x0 
# UVM_INFO @ 395: uvm_test_top.environment.wb2ahb_pred [PRED] AHB Write Actual: op:0x00000001 data:0x00cd addr:0x00000002 byte_select:0x0 
# UVM_INFO @ 395: uvm_test_top.environment.wb.wb_monitor [MON] op:0x00000001 data:0x00cd addr:0x00000002 byte_select:0x0 
# UVM_INFO @ 435: uvm_test_top.environment.wb.sequencer@@wb_memory_slave_s [SEQ] Processed txn: op:0x00000001 data:0x00ef addr:0x00000003 byte_select:0x0 
# wb_driver_bfm: Inside response()
# UVM_INFO @ 475: uvm_test_top.environment.ahb2wb_pred [PRED] Transaction Recievied through ahb_ae
# UVM_INFO @ 475: uvm_test_top.environment.ahb2wb_pred [PRED] WB Write Predicted: op:0x00000001 data:0x00ef addr:0x00000003 byte_select:0x0 
# UVM_INFO @ 475: uvm_test_top.environment.ahb.ahb_monitor [MON] op:0x00000002 data:0x00ef addr:0x00000003 
# UVM_INFO @ 475: uvm_test_top.environment.ahb.sequencer@@ahb_master_access_s [SEQ] Write:op:0x00000002 data:0x00ef addr:0x00000003 
# ahb_driver_bfm: Inside access()
# UVM_INFO @ 495: uvm_test_top.environment.wb2ahb_pred [PRED] Transaction Recievied through wb_ae
# UVM_INFO @ 495: uvm_test_top.environment.ahb2wb_sb [SCBD] MATCH! - EXPECTED: op:0x00000001 data:0x00ef addr:0x00000003 byte_select:0x0 ACTUAL: op:0x00000001 data:0x00ef addr:0x00000003 byte_select:0x0 
# UVM_INFO @ 495: uvm_test_top.environment.wb2ahb_pred [PRED] AHB Write Actual: op:0x00000001 data:0x00ef addr:0x00000003 byte_select:0x0 
# UVM_INFO @ 495: uvm_test_top.environment.wb.wb_monitor [MON] op:0x00000001 data:0x00ef addr:0x00000003 byte_select:0x0 
# UVM_INFO @ 535: uvm_test_top.environment.wb.sequencer@@wb_memory_slave_s [SEQ] Processed txn: op:0x00000001 data:0x0045 addr:0x00000000 byte_select:0x0 
# wb_driver_bfm: Inside response()
# UVM_INFO @ 575: uvm_test_top.environment.ahb2wb_pred [PRED] Transaction Recievied through ahb_ae
# UVM_INFO @ 575: uvm_test_top.environment.ahb2wb_pred [PRED] WB Write Predicted: op:0x00000001 data:0x0045 addr:0x00000000 byte_select:0x0 
# UVM_INFO @ 575: uvm_test_top.environment.ahb.ahb_monitor [MON] op:0x00000002 data:0x0045 addr:0x00000000 
# UVM_INFO @ 575: uvm_test_top.environment.ahb.sequencer@@ahb_master_access_s [SEQ] Write:op:0x00000002 data:0x0045 addr:0x00000000 
# ahb_driver_bfm: Inside access()
# UVM_INFO @ 595: uvm_test_top.environment.wb2ahb_pred [PRED] Transaction Recievied through wb_ae
# UVM_INFO @ 595: uvm_test_top.environment.ahb2wb_sb [SCBD] MATCH! - EXPECTED: op:0x00000001 data:0x0045 addr:0x00000000 byte_select:0x0 ACTUAL: op:0x00000001 data:0x0045 addr:0x00000000 byte_select:0x0 
# UVM_INFO @ 595: uvm_test_top.environment.wb2ahb_pred [PRED] AHB Write Actual: op:0x00000001 data:0x0045 addr:0x00000000 byte_select:0x0 
# UVM_INFO @ 595: uvm_test_top.environment.wb.wb_monitor [MON] op:0x00000001 data:0x0045 addr:0x00000000 byte_select:0x0 
# UVM_INFO @ 635: uvm_test_top.environment.wb.sequencer@@wb_memory_slave_s [SEQ] Processed txn: op:0x00000002 data:0x00cd addr:0x00000002 byte_select:0x0 
# wb_driver_bfm: Inside response()
# UVM_INFO @ 655: uvm_test_top.environment.wb2ahb_pred [PRED] Transaction Recievied through wb_ae
# UVM_INFO @ 655: uvm_test_top.environment.wb2ahb_pred [PRED] AHB Read Predicted: op:0x00000001 data:0x00cd addr:0x00000002 
# UVM_INFO @ 655: uvm_test_top.environment.wb.wb_monitor [MON] op:0x00000002 data:0x00cd addr:0x00000002 byte_select:0x0 
# UVM_INFO @ 675: uvm_test_top.environment.ahb2wb_pred [PRED] Transaction Recievied through ahb_ae
# UVM_INFO @ 675: uvm_test_top.environment.wb2ahb_sb [SCBD] MATCH! - EXPECTED: op:0x00000001 data:0x00cd addr:0x00000002 ACTUAL: op:0x00000001 data:0x00cd addr:0x00000002 
# UVM_INFO @ 675: uvm_test_top.environment.ahb2wb_pred [PRED] AHB Read Actual: op:0x00000001 data:0x00cd addr:0x00000002 
# UVM_INFO @ 675: uvm_test_top.environment.ahb.ahb_monitor [MON] op:0x00000001 data:0x00cd addr:0x00000002 
# UVM_INFO @ 675: uvm_test_top.environment.ahb.sequencer@@ahb_master_access_s [SEQ] Read:op:0x00000001 data:0x00cd addr:0x00000002 
# ahb_driver_bfm: Inside access()
# UVM_INFO @ 735: uvm_test_top.environment.wb.sequencer@@wb_memory_slave_s [SEQ] Processed txn: op:0x00000002 data:0x00ab addr:0x00000001 byte_select:0x0 
# wb_driver_bfm: Inside response()
# UVM_INFO @ 755: uvm_test_top.environment.wb2ahb_pred [PRED] Transaction Recievied through wb_ae
# UVM_INFO @ 755: uvm_test_top.environment.wb2ahb_pred [PRED] AHB Read Predicted: op:0x00000001 data:0x00ab addr:0x00000001 
# UVM_INFO @ 755: uvm_test_top.environment.wb.wb_monitor [MON] op:0x00000002 data:0x00ab addr:0x00000001 byte_select:0x0 
# UVM_INFO @ 775: uvm_test_top.environment.ahb2wb_pred [PRED] Transaction Recievied through ahb_ae
# UVM_INFO @ 775: uvm_test_top.environment.wb2ahb_sb [SCBD] MATCH! - EXPECTED: op:0x00000001 data:0x00ab addr:0x00000001 ACTUAL: op:0x00000001 data:0x00ab addr:0x00000001 
# UVM_INFO @ 775: uvm_test_top.environment.ahb2wb_pred [PRED] AHB Read Actual: op:0x00000001 data:0x00ab addr:0x00000001 
# UVM_INFO @ 775: uvm_test_top.environment.ahb.ahb_monitor [MON] op:0x00000001 data:0x00ab addr:0x00000001 
# UVM_INFO @ 775: uvm_test_top.environment.ahb.sequencer@@ahb_master_access_s [SEQ] Read:op:0x00000001 data:0x00ab addr:0x00000001 
# ahb_driver_bfm: Inside access()
# UVM_INFO @ 835: uvm_test_top.environment.wb.sequencer@@wb_memory_slave_s [SEQ] Processed txn: op:0x00000002 data:0x0045 addr:0x00000000 byte_select:0x0 
# wb_driver_bfm: Inside response()
# UVM_INFO @ 855: uvm_test_top.environment.wb2ahb_pred [PRED] Transaction Recievied through wb_ae
# UVM_INFO @ 855: uvm_test_top.environment.wb2ahb_pred [PRED] AHB Read Predicted: op:0x00000001 data:0x0045 addr:0x00000000 
# UVM_INFO @ 855: uvm_test_top.environment.wb.wb_monitor [MON] op:0x00000002 data:0x0045 addr:0x00000000 byte_select:0x0 
# UVM_INFO @ 875: uvm_test_top.environment.ahb2wb_pred [PRED] Transaction Recievied through ahb_ae
# UVM_INFO @ 875: uvm_test_top.environment.wb2ahb_sb [SCBD] MATCH! - EXPECTED: op:0x00000001 data:0x0045 addr:0x00000000 ACTUAL: op:0x00000001 data:0x0045 addr:0x00000000 
# UVM_INFO @ 875: uvm_test_top.environment.ahb2wb_pred [PRED] AHB Read Actual: op:0x00000001 data:0x0045 addr:0x00000000 
# UVM_INFO @ 875: uvm_test_top.environment.ahb.ahb_monitor [MON] op:0x00000001 data:0x0045 addr:0x00000000 
# UVM_INFO @ 875: uvm_test_top.environment.ahb.sequencer@@ahb_master_access_s [SEQ] Read:op:0x00000001 data:0x0045 addr:0x00000000 
# ahb_driver_bfm: Inside access()
# UVM_INFO @ 935: uvm_test_top.environment.wb.sequencer@@wb_memory_slave_s [SEQ] Processed txn: op:0x00000002 data:0x00ef addr:0x00000003 byte_select:0x0 
# wb_driver_bfm: Inside response()
# UVM_INFO @ 955: uvm_test_top.environment.wb2ahb_pred [PRED] Transaction Recievied through wb_ae
# UVM_INFO @ 955: uvm_test_top.environment.wb2ahb_pred [PRED] AHB Read Predicted: op:0x00000001 data:0x00ef addr:0x00000003 
# UVM_INFO @ 955: uvm_test_top.environment.wb.wb_monitor [MON] op:0x00000002 data:0x00ef addr:0x00000003 byte_select:0x0 
# UVM_INFO @ 975: uvm_test_top.environment.ahb2wb_pred [PRED] Transaction Recievied through ahb_ae
# UVM_INFO @ 975: uvm_test_top.environment.wb2ahb_sb [SCBD] MATCH! - EXPECTED: op:0x00000001 data:0x00ef addr:0x00000003 ACTUAL: op:0x00000001 data:0x00ef addr:0x00000003 
# UVM_INFO @ 975: uvm_test_top.environment.ahb2wb_pred [PRED] AHB Read Actual: op:0x00000001 data:0x00ef addr:0x00000003 
# UVM_INFO @ 975: uvm_test_top.environment.ahb.ahb_monitor [MON] op:0x00000001 data:0x00ef addr:0x00000003 
# UVM_INFO @ 975: uvm_test_top.environment.ahb.sequencer@@ahb_master_access_s [SEQ] Read:op:0x00000001 data:0x00ef addr:0x00000003 
# ahb_driver_bfm: Inside access()
# UVM_INFO @ 1035: uvm_test_top.environment.wb.sequencer@@wb_memory_slave_s [SEQ] Processed txn: op:0x00000001 data:0x0069 addr:0x00000000 byte_select:0x0 
# wb_driver_bfm: Inside response()
# UVM_INFO @ 1075: uvm_test_top.environment.ahb2wb_pred [PRED] Transaction Recievied through ahb_ae
# UVM_INFO @ 1075: uvm_test_top.environment.ahb2wb_pred [PRED] WB Write Predicted: op:0x00000001 data:0x0069 addr:0x00000000 byte_select:0x0 
# UVM_INFO @ 1075: uvm_test_top.environment.ahb.ahb_monitor [MON] op:0x00000002 data:0x0069 addr:0x00000000 
# UVM_INFO @ 1075: uvm_test_top.environment.ahb.sequencer@@ahb_master_access_s [SEQ] Write:op:0x00000002 data:0x0069 addr:0x00000000 
# ahb_driver_bfm: Inside access()
# UVM_INFO @ 1095: uvm_test_top.environment.wb2ahb_pred [PRED] Transaction Recievied through wb_ae
# UVM_INFO @ 1095: uvm_test_top.environment.ahb2wb_sb [SCBD] MATCH! - EXPECTED: op:0x00000001 data:0x0069 addr:0x00000000 byte_select:0x0 ACTUAL: op:0x00000001 data:0x0069 addr:0x00000000 byte_select:0x0 
# UVM_INFO @ 1095: uvm_test_top.environment.wb2ahb_pred [PRED] AHB Write Actual: op:0x00000001 data:0x0069 addr:0x00000000 byte_select:0x0 
# UVM_INFO @ 1095: uvm_test_top.environment.wb.wb_monitor [MON] op:0x00000001 data:0x0069 addr:0x00000000 byte_select:0x0 
# UVM_INFO @ 1135: uvm_test_top.environment.wb.sequencer@@wb_memory_slave_s [SEQ] Processed txn: op:0x00000002 data:0x00ef addr:0x00000003 byte_select:0x0 
# wb_driver_bfm: Inside response()
# UVM_INFO @ 1155: uvm_test_top.environment.wb2ahb_pred [PRED] Transaction Recievied through wb_ae
# UVM_INFO @ 1155: uvm_test_top.environment.wb2ahb_pred [PRED] AHB Read Predicted: op:0x00000001 data:0x00ef addr:0x00000003 
# UVM_INFO @ 1155: uvm_test_top.environment.wb.wb_monitor [MON] op:0x00000002 data:0x00ef addr:0x00000003 byte_select:0x0 
# UVM_INFO @ 1175: uvm_test_top.environment.ahb2wb_pred [PRED] Transaction Recievied through ahb_ae
# UVM_INFO @ 1175: uvm_test_top.environment.wb2ahb_sb [SCBD] MATCH! - EXPECTED: op:0x00000001 data:0x00ef addr:0x00000003 ACTUAL: op:0x00000001 data:0x00ef addr:0x00000003 
# UVM_INFO @ 1175: uvm_test_top.environment.ahb2wb_pred [PRED] AHB Read Actual: op:0x00000001 data:0x00ef addr:0x00000003 
# UVM_INFO @ 1175: uvm_test_top.environment.ahb.ahb_monitor [MON] op:0x00000001 data:0x00ef addr:0x00000003 
# UVM_INFO @ 1175: uvm_test_top.environment.ahb.sequencer@@ahb_master_access_s [SEQ] Read:op:0x00000001 data:0x00ef addr:0x00000003 
# ahb_driver_bfm: Inside access()
# UVM_INFO @ 1235: uvm_test_top.environment.wb.sequencer@@wb_memory_slave_s [SEQ] Processed txn: op:0x00000002 data:0x0069 addr:0x00000000 byte_select:0x0 
# wb_driver_bfm: Inside response()
# UVM_INFO @ 1255: uvm_test_top.environment.wb2ahb_pred [PRED] Transaction Recievied through wb_ae
# UVM_INFO @ 1255: uvm_test_top.environment.wb2ahb_pred [PRED] AHB Read Predicted: op:0x00000001 data:0x0069 addr:0x00000000 
# UVM_INFO @ 1255: uvm_test_top.environment.wb.wb_monitor [MON] op:0x00000002 data:0x0069 addr:0x00000000 byte_select:0x0 
# UVM_INFO @ 1275: uvm_test_top.environment.ahb2wb_pred [PRED] Transaction Recievied through ahb_ae
# UVM_INFO @ 1275: uvm_test_top.environment.wb2ahb_sb [SCBD] MATCH! - EXPECTED: op:0x00000001 data:0x0069 addr:0x00000000 ACTUAL: op:0x00000001 data:0x0069 addr:0x00000000 
# UVM_INFO @ 1275: uvm_test_top.environment.ahb2wb_pred [PRED] AHB Read Actual: op:0x00000001 data:0x0069 addr:0x00000000 
# UVM_INFO @ 1275: uvm_test_top.environment.ahb.ahb_monitor [MON] op:0x00000001 data:0x0069 addr:0x00000000 
# UVM_INFO @ 1275: uvm_test_top.environment.ahb.sequencer@@ahb_master_access_s [SEQ] Read:op:0x00000001 data:0x0069 addr:0x00000000 
# UVM_INFO verilog_src/uvm-1.1d/src/base/uvm_objection.svh(1268) @ 1475: reporter [TEST_DONE] 'run' phase is ready to proceed to the 'extract' phase
# UVM_INFO @ 1475: uvm_test_top.environment.ahb2wb_sb [SCBD] SCOREBOARD_RESULTS:  PREDICTED_TRANSACTIONS=5 MATCHES=5 MISMATCHES=0
# UVM_INFO @ 1475: uvm_test_top.environment.wb2ahb_sb [SCBD] SCOREBOARD_RESULTS:  PREDICTED_TRANSACTIONS=6 MATCHES=6 MISMATCHES=0
# 
# --- UVM Report Summary ---
# 
# ** Report counts by severity
# UVM_INFO :  111
# UVM_WARNING :    0
# UVM_ERROR :    0
# UVM_FATAL :    0
# ** Report counts by id
# [CFG]     1
# [MON]    24
# [PRED]    46
# [Questa UVM]     3
# [RNTST]     1
# [SCBD]    13
# [SEQ]    22
# [TEST_DONE]     1
# ** Note: $finish    : /scratch/aedemo/tools/Questa_10.6c/questasim/linux_x86_64/../verilog_src/uvm-1.1d/src/base/uvm_root.svh(430)
#    Time: 1475 ns  Iteration: 60  Instance: /hvl_top
# 1
# Break in Task uvm_pkg/uvm_root::run_test at /scratch/aedemo/tools/Questa_10.6c/questasim/linux_x86_64/../verilog_src/uvm-1.1d/src/base/uvm_root.svh line 430
# Stopped at /scratch/aedemo/tools/Questa_10.6c/questasim/linux_x86_64/../verilog_src/uvm-1.1d/src/base/uvm_root.svh line 430
#  quit -f
# Saving coverage database on exit...
# Memory Statistics                         
#     mem: size after elab (VSZ)                 403.12 Mb
#     mem: size during sim (VSZ)                 403.12 Mb
# Elaboration Time                          
#    elab: wall time                               0.66 s
#    elab: cpu time                                0.62 s
# Simulation Time                           
#     sim: wall time                               0.07 s
#     sim: cpu time                                0.03 s
# Coverage Save Time                        
#    save: wall time                               0.01 s
#    save: cpu time                                0.00 s
# Total Time                                
#   total: wall time                               0.74 s
#   total: cpu time                                0.65 s
# 
# End time: 21:28:06 on Sep 25,2017, Elapsed time: 0:00:01
# Errors: 0, Warnings: 0
